// Jest Snapshot v1, https://goo.gl/fbAQLP

exports[`<PolicyRenewal/> Should render a policy renewal with a date and title 1`] = `
<Fragment>
  <styled.div>
    <span
      className="value"
    >
      22/05/2019
    </span>
    <span
      className="title"
    >
      Renewal
    </span>
  </styled.div>
</Fragment>
`;
